code/arm_multi.vcd
$date
	Sun Dec 24 19:32:59 2023
$end
$version
	Icarus Verilog
$end
$timescale
	1ns
$end
$scope module testbench $end
$var wire 32 ! WriteData [31:0] $end
$var wire 1 " MemWrite $end
$var wire 32 # Adr [31:0] $end
$var reg 1 $ clk $end
$var reg 1 % reset $end
$scope module dut $end
$var wire 1 $ clk $end
$var wire 1 % reset $end
$var wire 32 & WriteData [31:0] $end
$var wire 32 ' ReadData [31:0] $end
$var wire 1 " MemWrite $end
$var wire 32 ( Adr [31:0] $end
$scope module arm $end
$var wire 1 $ clk $end
$var wire 1 % reset $end
$var wire 1 ) lmulFlag $end
$var wire 32 * WriteData [31:0] $end
$var wire 2 + ResultSrc [1:0] $end
$var wire 1 , RegWrite $end
$var wire 1 - RegSrcMul $end
$var wire 2 . RegSrc [1:0] $end
$var wire 32 / ReadData [31:0] $end
$var wire 1 0 PCWrite $end
$var wire 1 " MemWrite $end
$var wire 32 1 Instr [31:0] $end
$var wire 2 2 ImmSrc [1:0] $end
$var wire 1 3 IRWrite $end
$var wire 1 4 FpuWrite $end
$var wire 1 5 AdrSrc $end
$var wire 32 6 Adr [31:0] $end
$var wire 2 7 ALUSrcB [1:0] $end
$var wire 2 8 ALUSrcA [1:0] $end
$var wire 4 9 ALUFlags [3:0] $end
$var wire 3 : ALUControl [2:0] $end
$scope module c $end
$var wire 1 $ clk $end
$var wire 1 % reset $end
$var wire 1 ) lmulFlag $end
$var wire 2 ; ResultSrc [1:0] $end
$var wire 1 , RegWrite $end
$var wire 1 < RegW $end
$var wire 1 - RegSrcMul $end
$var wire 2 = RegSrc [1:0] $end
$var wire 1 0 PCWrite $end
$var wire 1 > PCS $end
$var wire 1 ? NextPC $end
$var wire 1 " MemWrite $end
$var wire 1 @ MemW $end
$var wire 32 A Instr [31:0] $end
$var wire 2 B ImmSrc [1:0] $end
$var wire 1 3 IRWrite $end
$var wire 1 4 FpuWrite $end
$var wire 1 C FpuW $end
$var wire 2 D FlagW [1:0] $end
$var wire 1 5 AdrSrc $end
$var wire 2 E ALUSrcB [1:0] $end
$var wire 2 F ALUSrcA [1:0] $end
$var wire 4 G ALUFlags [3:0] $end
$var wire 3 H ALUControl [2:0] $end
$scope module cl $end
$var wire 4 I Cond [3:0] $end
$var wire 2 J FlagWrite [1:0] $end
$var wire 1 4 FpuWrite $end
$var wire 1 " MemWrite $end
$var wire 1 0 PCWrite $end
$var wire 1 , RegWrite $end
$var wire 1 $ clk $end
$var wire 1 % reset $end
$var wire 1 < RegW $end
$var wire 1 > PCS $end
$var wire 1 ? NextPC $end
$var wire 1 @ MemW $end
$var wire 1 C FpuW $end
$var wire 4 K Flags [3:0] $end
$var wire 2 L FlagW [1:0] $end
$var wire 1 M CondExFlop $end
$var wire 1 N CondEx $end
$var wire 4 O ALUFlags [3:0] $end
$scope module ALUF1Reg $end
$var wire 1 $ clk $end
$var wire 2 P d [1:0] $end
$var wire 1 Q en $end
$var wire 1 % reset $end
$var reg 2 R q [1:0] $end
$upscope $end
$scope module ALUF2Reg $end
$var wire 1 $ clk $end
$var wire 2 S d [1:0] $end
$var wire 1 T en $end
$var wire 1 % reset $end
$var reg 2 U q [1:0] $end
$upscope $end
$scope module cc $end
$var wire 4 V Cond [3:0] $end
$var wire 4 W Flags [3:0] $end
$var wire 1 X ge $end
$var wire 1 Y zero $end
$var wire 1 Z overflow $end
$var wire 1 [ neg $end
$var wire 1 \ carry $end
$var reg 1 N CondEx $end
$upscope $end
$scope module condExReg $end
$var wire 1 $ clk $end
$var wire 1 N d $end
$var wire 1 % reset $end
$var reg 1 M q $end
$upscope $end
$upscope $end
$scope module dec $end
$var wire 6 ] Funct [5:0] $end
$var wire 2 ^ ImmSrc [1:0] $end
$var wire 4 _ Mop [3:0] $end
$var wire 2 ` Op [1:0] $end
$var wire 1 > PCS $end
$var wire 4 a Rd [3:0] $end
$var wire 1 $ clk $end
$var wire 1 % reset $end
$var wire 1 ) lmulFlag $end
$var wire 2 b ResultSrc [1:0] $end
$var wire 1 < RegW $end
$var wire 1 - RegSrcMul $end
$var wire 2 c RegSrc [1:0] $end
$var wire 1 ? NextPC $end
$var wire 1 @ MemW $end
$var wire 1 3 IRWrite $end
$var wire 1 C FpuW $end
$var wire 1 d Branch $end
$var wire 1 5 AdrSrc $end
$var wire 2 e ALUSrcB [1:0] $end
$var wire 2 f ALUSrcA [1:0] $end
$var wire 1 g ALUOp $end
$var reg 3 h ALUControl [2:0] $end
$var reg 2 i FlagW [1:0] $end
$var reg 1 j long $end
$scope module fsm $end
$var wire 6 k Funct [5:0] $end
$var wire 2 l Op [1:0] $end
$var wire 1 $ clk $end
$var wire 1 j long $end
$var wire 1 % reset $end
$var wire 1 ) lmulFlag $end
$var wire 2 m ResultSrc [1:0] $end
$var wire 1 < RegW $end
$var wire 1 ? NextPC $end
$var wire 1 @ MemW $end
$var wire 1 3 IRWrite $end
$var wire 1 C FpuW $end
$var wire 1 d Branch $end
$var wire 1 5 AdrSrc $end
$var wire 2 n ALUSrcB [1:0] $end
$var wire 2 o ALUSrcA [1:0] $end
$var wire 1 g ALUOp $end
$var reg 15 p controls [14:0] $end
$var reg 4 q nextstate [3:0] $end
$var reg 4 r state [3:0] $end
$upscope $end
$upscope $end
$upscope $end
$scope module dp $end
$var wire 3 s ALUControl [2:0] $end
$var wire 2 t ALUSrcA [1:0] $end
$var wire 2 u ALUSrcB [1:0] $end
$var wire 1 5 AdrSrc $end
$var wire 1 4 FpuWrite $end
$var wire 1 3 IRWrite $end
$var wire 2 v ImmSrc [1:0] $end
$var wire 32 w PCNext [31:0] $end
$var wire 1 0 PCWrite $end
$var wire 2 x RegSrc [1:0] $end
$var wire 1 - RegSrcMul $end
$var wire 1 , RegWrite $end
$var wire 2 y ResultSrc [1:0] $end
$var wire 1 $ clk $end
$var wire 1 ) lmulFlag $end
$var wire 1 % reset $end
$var wire 4 z _RA2 [3:0] $end
$var wire 4 { _RA1 [3:0] $end
$var wire 32 | WriteData [31:0] $end
$var wire 32 } SrcB [31:0] $end
$var wire 32 ~ SrcA [31:0] $end
$var wire 32 !" Result [31:0] $end
$var wire 32 "" ReadData [31:0] $end
$var wire 32 #" RD2 [31:0] $end
$var wire 32 $" RD1 [31:0] $end
$var wire 4 %" RA2 [3:0] $end
$var wire 4 &" RA1 [3:0] $end
$var wire 32 '" PC [31:0] $end
$var wire 32 (" Instr [31:0] $end
$var wire 64 )" FWriteData [63:0] $end
$var wire 64 *" FResult [63:0] $end
$var wire 64 +" FRD2 [63:0] $end
$var wire 64 ," FRD1 [63:0] $end
$var wire 64 -" FPUResult [63:0] $end
$var wire 64 ." FA [63:0] $end
$var wire 32 /" ExtImm [31:0] $end
$var wire 32 0" Data [31:0] $end
$var wire 32 1" Adr [31:0] $end
$var wire 32 2" ALUResult2 [31:0] $end
$var wire 32 3" ALUResult [31:0] $end
$var wire 32 4" ALUOut2 [31:0] $end
$var wire 32 5" ALUOut [31:0] $end
$var wire 4 6" ALUFlags [3:0] $end
$var wire 4 7" A3 [3:0] $end
$var wire 32 8" A [31:0] $end
$scope module a $end
$var wire 3 9" ALUControl [2:0] $end
$var wire 1 :" carry $end
$var wire 1 ;" overflow $end
$var wire 1 <" zero $end
$var wire 33 =" sum [32:0] $end
$var wire 1 >" negative $end
$var wire 32 ?" condinvb [31:0] $end
$var wire 32 @" b [31:0] $end
$var wire 32 A" a [31:0] $end
$var wire 4 B" ALUFlags [3:0] $end
$var reg 32 C" Result [31:0] $end
$var reg 32 D" Result2 [31:0] $end
$upscope $end
$scope module a3mux $end
$var wire 4 E" d0 [3:0] $end
$var wire 4 F" d1 [3:0] $end
$var wire 1 - s $end
$var wire 4 G" y [3:0] $end
$upscope $end
$scope module adrmux $end
$var wire 32 H" d1 [31:0] $end
$var wire 1 5 s $end
$var wire 32 I" y [31:0] $end
$var wire 32 J" d0 [31:0] $end
$upscope $end
$scope module alureg $end
$var wire 1 $ clk $end
$var wire 32 K" d [31:0] $end
$var wire 1 % reset $end
$var reg 32 L" q [31:0] $end
$upscope $end
$scope module alureg2 $end
$var wire 1 $ clk $end
$var wire 32 M" d [31:0] $end
$var wire 1 % reset $end
$var reg 32 N" q [31:0] $end
$upscope $end
$scope module datareg $end
$var wire 1 $ clk $end
$var wire 1 % reset $end
$var wire 32 O" d [31:0] $end
$var reg 32 P" q [31:0] $end
$upscope $end
$scope module ext $end
$var wire 2 Q" ImmSrc [1:0] $end
$var wire 24 R" Instr [23:0] $end
$var reg 32 S" ExtImm [31:0] $end
$upscope $end
$scope module f $end
$var wire 64 T" a [63:0] $end
$var wire 64 U" b [63:0] $end
$var wire 1 V" double $end
$var wire 32 W" f_result [31:0] $end
$var wire 64 X" d_result [63:0] $end
$var wire 64 Y" Result [63:0] $end
$scope module double_a $end
$var wire 64 Z" srcA [63:0] $end
$var wire 64 [" srcB [63:0] $end
$var wire 64 \" sum [63:0] $end
$var wire 64 ]" result [63:0] $end
$var wire 64 ^" manMinShift [63:0] $end
$var wire 64 _" manMin [63:0] $end
$var wire 64 `" manMax [63:0] $end
$var wire 64 a" manB [63:0] $end
$var wire 64 b" manA [63:0] $end
$var wire 64 c" expRshift [63:0] $end
$var wire 64 d" expR [63:0] $end
$var wire 64 e" expB [63:0] $end
$var wire 64 f" expA [63:0] $end
$var wire 64 g" diff [63:0] $end
$var wire 64 h" _sum [63:0] $end
$upscope $end
$scope module float_a $end
$var wire 32 i" srcA [31:0] $end
$var wire 32 j" srcB [31:0] $end
$var wire 32 k" sum [31:0] $end
$var wire 32 l" result [31:0] $end
$var wire 32 m" manMinShift [31:0] $end
$var wire 32 n" manMin [31:0] $end
$var wire 32 o" manMax [31:0] $end
$var wire 32 p" manB [31:0] $end
$var wire 32 q" manA [31:0] $end
$var wire 32 r" expRshift [31:0] $end
$var wire 32 s" expR [31:0] $end
$var wire 32 t" expB [31:0] $end
$var wire 32 u" expA [31:0] $end
$var wire 32 v" diff [31:0] $end
$var wire 32 w" _sum [31:0] $end
$upscope $end
$upscope $end
$scope module fpu_regfile $end
$var wire 1 x" A1 $end
$var wire 1 y" A2 $end
$var wire 1 z" A3 $end
$var wire 1 $ clk $end
$var wire 4 {" ra1 [3:0] $end
$var wire 4 |" ra2 [3:0] $end
$var wire 1 }" sod $end
$var wire 4 ~" wa3 [3:0] $end
$var wire 1 4 we3 $end
$var wire 64 !# wd3 [63:0] $end
$var wire 32 "# rd2f [31:0] $end
$var wire 64 ## rd2 [63:0] $end
$var wire 32 $# rd1f [31:0] $end
$var wire 64 %# rd1 [63:0] $end
$upscope $end
$scope module fpureg $end
$var wire 1 $ clk $end
$var wire 64 &# d [63:0] $end
$var wire 1 % reset $end
$var reg 64 '# q [63:0] $end
$upscope $end
$scope module frdreg $end
$var wire 1 $ clk $end
$var wire 128 (# d [127:0] $end
$var wire 1 % reset $end
$var reg 128 )# q [127:0] $end
$upscope $end
$scope module instrreg $end
$var wire 1 $ clk $end
$var wire 1 3 en $end
$var wire 1 % reset $end
$var wire 32 *# d [31:0] $end
$var reg 32 +# q [31:0] $end
$upscope $end
$scope module pcreg $end
$var wire 1 $ clk $end
$var wire 32 ,# d [31:0] $end
$var wire 1 0 en $end
$var wire 1 % reset $end
$var reg 32 -# q [31:0] $end
$upscope $end
$scope module ra1mulmux $end
$var wire 4 .# d0 [3:0] $end
$var wire 4 /# d1 [3:0] $end
$var wire 1 - s $end
$var wire 4 0# y [3:0] $end
$upscope $end
$scope module ra1mux $end
$var wire 4 1# d0 [3:0] $end
$var wire 4 2# d1 [3:0] $end
$var wire 1 3# s $end
$var wire 4 4# y [3:0] $end
$upscope $end
$scope module ra2mulmux $end
$var wire 4 5# d0 [3:0] $end
$var wire 4 6# d1 [3:0] $end
$var wire 1 - s $end
$var wire 4 7# y [3:0] $end
$upscope $end
$scope module ra2mux $end
$var wire 4 8# d0 [3:0] $end
$var wire 4 9# d1 [3:0] $end
$var wire 1 :# s $end
$var wire 4 ;# y [3:0] $end
$upscope $end
$scope module rdreg $end
$var wire 1 $ clk $end
$var wire 64 <# d [63:0] $end
$var wire 1 % reset $end
$var reg 64 =# q [63:0] $end
$upscope $end
$scope module resultmux $end
$var wire 32 ># d0 [31:0] $end
$var wire 32 ?# d1 [31:0] $end
$var wire 32 @# d2 [31:0] $end
$var wire 2 A# s [1:0] $end
$var wire 32 B# y [31:0] $end
$upscope $end
$scope module rf $end
$var wire 1 $ clk $end
$var wire 1 ) long $end
$var wire 32 C# r15 [31:0] $end
$var wire 4 D# ra1 [3:0] $end
$var wire 4 E# ra2 [3:0] $end
$var wire 4 F# wa3 [3:0] $end
$var wire 4 G# wa4 [3:0] $end
$var wire 32 H# wd3 [31:0] $end
$var wire 32 I# wd4 [31:0] $end
$var wire 1 , we3 $end
$var wire 32 J# rd2 [31:0] $end
$var wire 32 K# rd1 [31:0] $end
$upscope $end
$scope module srcamux $end
$var wire 32 L# d0 [31:0] $end
$var wire 32 M# d1 [31:0] $end
$var wire 1 N# s $end
$var wire 32 O# y [31:0] $end
$upscope $end
$scope module srcbmux $end
$var wire 32 P# d0 [31:0] $end
$var wire 32 Q# d1 [31:0] $end
$var wire 32 R# d2 [31:0] $end
$var wire 2 S# s [1:0] $end
$var wire 32 T# y [31:0] $end
$upscope $end
$upscope $end
$upscope $end
$scope module mem $end
$var wire 32 U# a [31:0] $end
$var wire 1 $ clk $end
$var wire 32 V# rd [31:0] $end
$var wire 32 W# wd [31:0] $end
$var wire 1 " we $end
$upscope $end
$upscope $end
$upscope $end
$enddefinitions $end
#0
$dumpvars
b0 W#
b11100000010011110000000000001111 V#
b0 U#
b100 T#
b10 S#
b100 R#
b0 Q#
b0 P#
b0 O#
1N#
b0 M#
b0 L#
bx K#
bx J#
b0 I#
b100 H#
b0 G#
b0 F#
b0 E#
b0 D#
b100 C#
b100 B#
b10 A#
b100 @#
b0 ?#
b0 >#
b0 =#
bx <#
b0 ;#
0:#
b0 9#
b0 8#
b0 7#
b0 6#
b0 5#
b0 4#
03#
b1111 2#
b0 1#
b0 0#
b0 /#
b0 .#
b0 -#
b100 ,#
b0 +#
b11100000010011110000000000001111 *#
b0 )#
b0xxxxxxxxxxxxxxxxxxxxxxxxxxxxxxxx00000000000000000000000000000000xxxxxxxxxxxxxxxxxxxxxxxxxxxxxxxx (#
b0 '#
b100000000000000000000000 &#
b0xxxxxxxxxxxxxxxxxxxxxxxxxxxxxxxx %#
bx $#
b0xxxxxxxxxxxxxxxxxxxxxxxxxxxxxxxx ##
bx "#
b0 !#
b0 ~"
0}"
b0 |"
b0 {"
0z"
0y"
0x"
b100000000000000000000000 w"
b0 v"
b0 u"
b0 t"
b0 s"
b1 r"
b100000000000000000000000 q"
b100000000000000000000000 p"
b100000000000000000000000 o"
b100000000000000000000000 n"
b100000000000000000000000 m"
b100000000000000000000000 l"
b1000000000000000000000000 k"
b0 j"
b0 i"
b10000000000000000000000000000000000000000000000000000 h"
b0 g"
b0 f"
b0 e"
b0 d"
b1 c"
b10000000000000000000000000000000000000000000000000000 b"
b10000000000000000000000000000000000000000000000000000 a"
b10000000000000000000000000000000000000000000000000000 `"
b10000000000000000000000000000000000000000000000000000 _"
b10000000000000000000000000000000000000000000000000000 ^"
b10000000000000000000000000000000000000000000000000000 ]"
b100000000000000000000000000000000000000000000000000000 \"
b0 ["
b0 Z"
b100000000000000000000000 Y"
b10000000000000000000000000000000000000000000000000000 X"
b100000000000000000000000 W"
0V"
b0 U"
b0 T"
b0 S"
b0 R"
b0 Q"
b0 P"
b11100000010011110000000000001111 O"
b0 N"
bx M"
b0 L"
b100 K"
b0 J"
b0 I"
b100 H"
b0 G"
b0 F"
b0 E"
bx D"
b100 C"
b0 B"
b0 A"
b100 @"
b100 ?"
0>"
b100 ="
0<"
0;"
0:"
b0 9"
b0 8"
b0 7"
b0 6"
b0 5"
b0 4"
b100 3"
bx 2"
b0 1"
b0 0"
b0 /"
b0 ."
b100000000000000000000000 -"
b0xxxxxxxxxxxxxxxxxxxxxxxxxxxxxxxx ,"
b0xxxxxxxxxxxxxxxxxxxxxxxxxxxxxxxx +"
b0 *"
b0 )"
b0 ("
b0 '"
b0 &"
b0 %"
bx $"
bx #"
b11100000010011110000000000001111 ""
b100 !"
b0 ~
b100 }
b0 |
b0 {
b0 z
b10 y
b0 x
b100 w
b0 v
b10 u
b1 t
b0 s
b0 r
b1 q
b100010100110000 p
b1 o
b10 n
b10 m
b0 l
b0 k
0j
b0 i
b0 h
0g
b1 f
b10 e
0d
b0 c
b10 b
b0 a
b0 `
b0 _
b0 ^
b0 ]
0\
0[
0Z
0Y
1X
b0 W
b0 V
b0 U
0T
b0 S
b0 R
0Q
b0 P
b0 O
0N
0M
b0 L
b0 K
b0 J
b0 I
b0 H
b0 G
b1 F
b10 E
b0 D
0C
b0 B
b0 A
0@
1?
0>
b0 =
0<
b10 ;
b0 :
b0 9
b1 8
b10 7
b0 6
05
04
13
b0 2
b0 1
10
b11100000010011110000000000001111 /
b0 .
0-
0,
b10 +
b0 *
0)
b0 (
b11100000010011110000000000001111 '
b0 &
1%
1$
b0 #
0"
b0 !
$end
#5
b111111110000000000000000000000 ,"
b111111110000000000000000000000 %#
b1111111100000000000000000000000000000000000000000000000000000000111111110000000000000000000000 (#
b111111110000000000000000000000 +"
b111111110000000000000000000000 ##
b111111110000000000000000000000 $#
b111111110000000000000000000000 "#
0$
0%
#10
b1000000010000000000000000000000 -"
b1000000010000000000000000000000 Y"
b1000000010000000000000000000000 &#
b110000000000000000000000 w"
b10000000000000000000000111111110000000000000000000000 X"
b10000000000000000000000111111110000000000000000000000 ]"
b1000000010000000000000000000000 W"
b1000000010000000000000000000000 l"
b10000000000000000000000111111110000000000000000000000 h"
b10000000 r"
b110000000000000000000000 o"
b110000000000000000000000 n"
b1111111 s"
b10000000000000000000000111111110000000000000000000000 `"
b100000000000000000000001111111100000000000000000000000 \"
b10000000000000000000000111111110000000000000000000000 ^"
b10000000000000000000000111111110000000000000000000000 _"
b0xxxxxxxxxxxxxxxxxxxxxxxxxxxxxxxx +"
b0xxxxxxxxxxxxxxxxxxxxxxxxxxxxxxxx ##
b0xxxxxxxxxxxxxxxxxxxxxxxxxxxxxxxx00000000000000000000000000000000xxxxxxxxxxxxxxxxxxxxxxxxxxxxxxxx (#
b0xxxxxxxxxxxxxxxxxxxxxxxxxxxxxxxx ,"
b0xxxxxxxxxxxxxxxxxxxxxxxxxxxxxxxx %#
b1000 #"
b1000 J#
b100000000000000000000000000000001000 <#
b1000 $"
b1000 K#
b1111111 t"
b110000000000000000000000 p"
b1100000000000000000000000 k"
b110000000000000000000000 m"
b0 v"
b1111111 u"
b110000000000000000000000 q"
bx "#
bx $#
b1111 %"
b1111 ;#
b1111 E#
b1111 &"
b1111 4#
b1111 D#
b1000 w
b1000 H"
b1000 ,#
b1000 !"
b1000 B#
b1000 C#
b1000 H#
00
b111111110000000000000000000000 j"
b10000000000000000000000111111110000000000000000000000 a"
b111111110000000000000000000000 i"
b10000000000000000000000111111110000000000000000000000 b"
b1111 /"
b1111 S"
b1111 Q#
b1111 z
b1111 7#
b1111 8#
b1111 {
b1111 0#
b1111 1#
1N
b1000 3"
b1000 C"
b1000 K"
b1000 @#
b11100010100000000001111001111101 '
b11100010100000000001111001111101 /
b11100010100000000001111001111101 ""
b11100010100000000001111001111101 O"
b11100010100000000001111001111101 *#
b11100010100000000001111001111101 V#
0?
03
b111111110000000000000000000000 )"
b111111110000000000000000000000 U"
b111111110000000000000000000000 ["
b111111110000000000000000000000 ."
b111111110000000000000000000000 T"
b111111110000000000000000000000 Z"
bx !
bx &
bx *
bx |
bx P#
bx W#
bx 8"
bx L#
b1111 |"
b1111 {"
b10011110000000000001111 R"
b1111 F"
b1111 5#
b1111 /#
b1111 .#
b1110 I
b1110 V
b100 ]
b100 k
b1000 ="
b100 ~
b100 A"
b100 O#
b100 #
b100 (
b100 6
b100 1"
b100 I"
b100 U#
b100110000 p
b110 q
bx 4"
bx N"
bx I#
b100 5"
b100 L"
b100 >#
b100000000000000000000000 *"
b100000000000000000000000 !#
b100000000000000000000000 '#
b1111111100000000000000000000000000000000000000000000000000000000111111110000000000000000000000 )#
bx =#
b11100000010011110000000000001111 0"
b11100000010011110000000000001111 P"
b11100000010011110000000000001111 ?#
b11100000010011110000000000001111 1
b11100000010011110000000000001111 A
b11100000010011110000000000001111 ("
b11100000010011110000000000001111 +#
b100 '"
b100 J"
b100 -#
b100 M#
b1 r
1$
#15
0$
#20
b1 P
b10 S
1<"
b110 9
b110 G
b110 O
b110 6"
b110 B"
1:"
b0xxxxxxxxxxxxxxxxxxxxxxxxxxxxxxx -"
b0xxxxxxxxxxxxxxxxxxxxxxxxxxxxxxx Y"
b0xxxxxxxxxxxxxxxxxxxxxxxxxxxxxxx &#
b0xxxxxxxxxxxxxxxxxxxxxxxxxxxxxxxxxxxxxxxxxxxxxxxxxxxxx X"
b0xxxxxxxxxxxxxxxxxxxxxxxxxxxxxxxxxxxxxxxxxxxxxxxxxxxxx ]"
b0xxxxxxxxxxxxxxxxxxxxxxxxxxxxxxx W"
b0xxxxxxxxxxxxxxxxxxxxxxxxxxxxxxx l"
bx h"
b0x c"
b11111111111111111111111111110111 ?"
bx w"
bx r"
b1xxxxxxxxxxxxxxxxxxxxxxx o"
b1xxxxxxxxxxxxxxxxxxxxxxx n"
b1000 ~
b1000 A"
b1000 O#
b1000 }
b1000 @"
b1000 T#
b0 3"
b0 C"
b0 K"
b0 @#
b0xxxxxxxx s"
b100000000000000000000xxxxxxxxxxxxxxxxxxxxxxxxxxxxxxxx `"
bx \"
b100000000000000000000xxxxxxxxxxxxxxxxxxxxxxxxxxxxxxxx ^"
b100000000000000000000xxxxxxxxxxxxxxxxxxxxxxxxxxxxxxxx _"
0N#
b100000000000000000000000000000000 ="
b1 :
b1 H
b1 h
b1 s
b1 9"
b0xxxxxxxx t"
b1xxxxxxxxxxxxxxxxxxxxxxx p"
bx k"
bx m"
bx v"
b0xxxxxxxx u"
b1xxxxxxxxxxxxxxxxxxxxxxx q"
b0 +
b0 ;
b0 b
b0 m
b0 y
b0 A#
b0 8
b0 F
b0 f
b0 o
b0 t
b0 7
b0 E
b0 e
b0 n
b0 u
b0 S#
1g
bx j"
b100000000000000000000xxxxxxxxxxxxxxxxxxxxxxxxxxxxxxxx a"
bx i"
b100000000000000000000xxxxxxxxxxxxxxxxxxxxxxxxxxxxxxxx b"
b100 p
b1000 q
b1000 !
b1000 &
b1000 *
b1000 |
b1000 P#
b1000 W#
b1000 8"
b1000 L#
b0xxxxxxxxxxxxxxxxxxxxxxxxxxxxxxxx )"
b0xxxxxxxxxxxxxxxxxxxxxxxxxxxxxxxx U"
b0xxxxxxxxxxxxxxxxxxxxxxxxxxxxxxxx ["
b0xxxxxxxxxxxxxxxxxxxxxxxxxxxxxxxx ."
b0xxxxxxxxxxxxxxxxxxxxxxxxxxxxxxxx T"
b0xxxxxxxxxxxxxxxxxxxxxxxxxxxxxxxx Z"
b110 r
1M
b11100010100000000001111001111101 0"
b11100010100000000001111001111101 P"
b11100010100000000001111001111101 ?#
b100000000000000000000000000000001000 =#
b0xxxxxxxxxxxxxxxxxxxxxxxxxxxxxxxx00000000000000000000000000000000xxxxxxxxxxxxxxxxxxxxxxxxxxxxxxxx )#
b1000000010000000000000000000000 *"
b1000000010000000000000000000000 !#
b1000000010000000000000000000000 '#
b1000 5"
b1000 L"
b1000 >#
1$
#25
0$
#30
b0 S
b1000 ?"
0:"
0>"
b0 P
b0 9
b0 G
b0 O
b0 6"
b0 B"
0<"
b10000 3"
b10000 C"
b10000 K"
b10000 @#
b0 $"
b0 K#
b0 <#
b0 #"
b0 J#
1,
b10000 ="
b0 :
b0 H
b0 h
b0 s
b0 9"
b0 w
b0 H"
b0 ,#
b0 !"
b0 B#
b0 C#
b0 H#
1<
0g
b100000000000 p
b0 q
b0 5"
b0 L"
b0 >#
b0xxxxxxxxxxxxxxxxxxxxxxxxxxxxxxx *"
b0xxxxxxxxxxxxxxxxxxxxxxxxxxxxxxx !#
b0xxxxxxxxxxxxxxxxxxxxxxxxxxxxxxx '#
b1000 r
1$
#35
0$
#40
b100 ?"
10
0,
1N#
b100 }
b100 @"
b100 T#
b1000 3"
b1000 C"
b1000 K"
b1000 @#
b1000 $"
b1000 K#
b100000000000000000000000000000001000 <#
b1000 #"
b1000 J#
1?
0<
13
b10 +
b10 ;
b10 b
b10 m
b10 y
b10 A#
b1 8
b1 F
b1 f
b1 o
b1 t
b10 7
b10 E
b10 e
b10 n
b10 u
b10 S#
b1000 ="
b100 ~
b100 A"
b100 O#
b1000 w
b1000 H"
b1000 ,#
b1000 !"
b1000 B#
b1000 C#
b1000 H#
b100010100110000 p
b1 q
b0 !
b0 &
b0 *
b0 |
b0 P#
b0 W#
b0 8"
b0 L#
b0 r
b0 =#
b10000 5"
b10000 L"
b10000 >#
1$
#45
0$
#50
b11111111000000000000000000000000000000000000000000000000000000xxxxxxxxxxxxxxxxxxxxxxxxxxxxxxxx (#
b111111110000000000000000000000 ,"
b111111110000000000000000000000 %#
b0 $"
b0 K#
b0xxxxxxxxxxxxxxxxxxxxxxxxxxxxxxxx <#
bx #"
bx J#
b111111110000000000000000000000 $#
b1101 %"
b1101 ;#
b1101 E#
b0 &"
b0 4#
b0 D#
b1100 w
b1100 H"
b1100 ,#
b1100 !"
b1100 B#
b1100 C#
b1100 H#
00
b1111101 /"
b1111101 S"
b1111101 Q#
b1 7"
b1 G"
b1 F#
b1101 z
b1101 7#
b1101 8#
b0 {
b0 0#
b0 1#
b1100 3"
b1100 C"
b1100 K"
b1100 @#
b11100010100000000010000000000100 '
b11100010100000000010000000000100 /
b11100010100000000010000000000100 ""
b11100010100000000010000000000100 O"
b11100010100000000010000000000100 *#
b11100010100000000010000000000100 V#
0?
03
b1000 !
b1000 &
b1000 *
b1000 |
b1000 P#
b1000 W#
b1000 8"
b1000 L#
1z"
1y"
b1 ~"
b1101 |"
b0 {"
b100000000001111001111101 R"
b1 G#
b0 F"
b1 E"
b1 9#
b1110 6#
b1101 5#
b1101 /#
b0 .#
b1 a
b101000 ]
b101000 k
b111 _
b1100 ="
b1000 ~
b1000 A"
b1000 O#
b1000 #
b1000 (
b1000 6
b1000 1"
b1000 I"
b1000 U#
b100110000 p
b111 q
b1000 5"
b1000 L"
b1000 >#
b100000000000000000000000000000001000 =#
b11100010100000000001111001111101 1
b11100010100000000001111001111101 A
b11100010100000000001111001111101 ("
b11100010100000000001111001111101 +#
b1000 '"
b1000 J"
b1000 -#
b1000 M#
b1 r
1$
#55
0$
#60
b1111101 ?"
b1111101 3"
b1111101 C"
b1111101 K"
b1111101 @#
b1111101 ="
b0 ~
b0 A"
b0 O#
b1111101 }
b1111101 @"
b1111101 T#
b10000000000000000000000111111110000000000000000000000 ^"
b10000000000000000000000111111110000000000000000000000 _"
0N#
b1111111 u"
b110000000000000000000000 q"
b0 +
b0 ;
b0 b
b0 m
b0 y
b0 A#
b0 8
b0 F
b0 f
b0 o
b0 t
b1 7
b1 E
b1 e
b1 n
b1 u
b1 S#
1g
b111111110000000000000000000000 i"
b10000000000000000000000111111110000000000000000000000 b"
b1100 p
b1000 q
bx !
bx &
bx *
bx |
bx P#
bx W#
b0 8"
b0 L#
b111111110000000000000000000000 ."
b111111110000000000000000000000 T"
b111111110000000000000000000000 Z"
b111 r
b11100010100000000010000000000100 0"
b11100010100000000010000000000100 P"
b11100010100000000010000000000100 ?#
b0xxxxxxxxxxxxxxxxxxxxxxxxxxxxxxxx =#
b11111111000000000000000000000000000000000000000000000000000000xxxxxxxxxxxxxxxxxxxxxxxxxxxxxxxx )#
b1100 5"
b1100 L"
b1100 >#
1$
#65
0$
#70
bx S
x;"
x:"
x>"
bx P
bx 9
bx G
bx O
bx 6"
bx B"
x<"
bx 3"
bx C"
bx K"
bx @#
bx ="
bx ?"
bx }
bx @"
bx T#
1,
b1111101 w
b1111101 H"
b1111101 ,#
b1111101 !"
b1111101 B#
b1111101 C#
b1111101 H#
1<
b0 7
b0 E
b0 e
b0 n
b0 u
b0 S#
0g
b100000000000 p
b0 q
b1111101 5"
b1111101 L"
b1111101 >#
b1000 r
1$
#75
0$
#80
b0 S
0;"
0:"
0>"
b0 P
b0 9
b0 G
b0 O
b0 6"
b0 B"
0<"
b1100 3"
b1100 C"
b1100 K"
b1100 @#
b1100 ="
b100 ?"
b1000 ~
b1000 A"
b1000 O#
b100 }
b100 @"
b100 T#
10
0,
1N#
1?
0<
13
b10 +
b10 ;
b10 b
b10 m
b10 y
b10 A#
b1 8
b1 F
b1 f
b1 o
b1 t
b10 7
b10 E
b10 e
b10 n
b10 u
b10 S#
b1100 w
b1100 H"
b1100 ,#
b1100 !"
b1100 B#
b1100 C#
b1100 H#
b100010100110000 p
b1 q
b0 r
bx 5"
bx L"
bx >#
1$
#85
0$
